{
    "courseId": "NDL_ITMD",
    "title": "Introduction to modern data analysis in R",
    "slogan": "Data Science Brought To Life",
    "description": "This two-day course kick-starts your journey with R and data analysis, and gives you the tools to import, manipulate, visualize and communicate data sets in all sizes in the data science tool R.",
    "bio": "",
    "siteUrl": "https://course.nordicdatalab.dk",
    "twitter": "nordicdatalab",
    "fonts": "IBM+Plex+Mono:500|IBM+Plex+Sans:700|Lato:400,400i,700,700i",
    "testTemplate": "success <- function(text) {\n    cat(paste(\"\\033[32m\", text, \"\\033[0m\", sep = \"\"))\n}\n\n.solution <- \"${solutionEscaped}\"\n\n${solution}\n\n${test}\ntryCatch({\n    test()\n}, error = function(e) {\n    cat(paste(\"\\033[31m\", e[1], \"\\033[0m\", sep = \"\"))\n})",
    "juniper": {
        "repo": "ines/course-starter-r",
        "branch": "binder",
        "lang": "r",
        "kernelType": "ir",
        "debug": false
    },
    "showProfileImage": true,
    "footerLinks": [
        { "text": "Website", "url": "https://nordicdatalab.dk" },
        { "text": "Built with ♥", "url": "https://nordicdatalab.dk" }
    ],
    "theme": "#de7878"
}
